…
## Open States API

Bill Search - Search for bills with the term _agriculture_, in Texas, and in the upper chamber.


```r
os_billsearch(terms = 'agriculture', state = 'tx', chamber = 'upper')
#> # A tibble: 26 x 10
#>    title  created_at updated_at id    chamber state session type  subjects
#>  * <chr>  <chr>      <chr>      <chr> <chr>   <chr> <chr>   <chr> <chr>
#>  1 Relat… 2017-03-1… 2017-06-0… TXB0… upper   tx    85      bill  <NA>
#>  2 Recog… 2017-02-2… 2017-06-0… TXB0… upper   tx    85      reso… <NA>
#>  3 Recog… 2017-02-2… 2017-06-0… TXB0… upper   tx    85      reso… <NA>
#>  4 Relat… 2017-01-3… 2017-06-0… TXB0… upper   tx    85      bill  <NA>
#>  5 Relat… 2015-03-0… 2016-04-2… TXB0… upper   tx    84      bill  <NA>
#>  6 Relat… 2015-03-1… 2015-07-0… TXB0… upper   tx    84      bill  <NA>
#>  7 Urgin… 2015-05-1… 2016-04-2… TXB0… upper   tx    84      conc… <NA>
#>  8 Relat… 2015-03-1… 2015-03-2… TXB0… upper   tx    84      bill  <NA>
#>  9 Relat… 2015-03-1… 2015-03-2… TXB0… upper   tx    84      bill  <NA>
#> 10 Relat… 2015-03-0… 2015-03-1… TXB0… upper   tx    84      bill  <NA>
#> # ... with 16 more rows, and 1 more variable: bill_id <chr>
```

Legislator Search - Search for Republican legislators in Nevada


```r
os_legislatorsearch(state = 'nv', party = 'republican')
#> # A tibble: 24 x 26
#>    last_name updated_at   full_name  id    first_name middle_name district
#>  * <chr>     <chr>        <chr>      <chr> <chr>      <chr>       <chr>
#>  1 Hambrick  2018-05-14 … John Hamb… NVL0… John       ""          2
#>  2 Woodbury  2018-05-14 … Melissa W… NVL0… Melissa    ""          23
#>  3 Ellison   2018-05-14 … John Elli… NVL0… John C.    ""          33
#>  4 Hansen    2018-05-14 … Ira Hansen NVL0… Ira        ""          32
#>  5 Anderson  2018-05-14 … Paul Ande… NVL0… Paul       ""          13
#>  6 Oscarson  2018-05-14 … James Osc… NVL0… James      ""          36
#>  7 Wheeler   2018-05-14 … Jim Wheel… NVL0… Jim        ""          39
#>  8 Titus     2018-05-14 … Robin L. … NVL0… Robin L.   ""          38
#>  9 Edwards   2018-05-14 … Chris Edw… NVL0… Chris      ""          19
#> 10 Kramer    2018-05-14 … Al Kramer  NVL0… Al         ""          40
#> # ... with 14 more rows, and 19 more variables: state <chr>,
#> #   votesmart_id <chr>, party <chr>, email <chr>, all_ids <chr>,
#> #   leg_id <chr>, active <lgl>, transparencydata_id <chr>, nickname <chr>,
#> #   photo_url <chr>, url <chr>, country <chr>, created_at <chr>,
#> #   level <chr>, chamber <chr>, offices <chr>, `+address` <chr>,
#> #   suffixes <chr>, csrfmiddlewaretoken <chr>
```
…
